lab_02/program/01_fibonacci/sim/transcript
# do ../modelsim_script.tcl
# -vlog01compat
# +define+SIMULATION
# +incdir+../../../src
# +incdir+../../../testbench
# ../../../src/*.v
# ../../../testbench/*.v
# Model Technology ModelSim - Intel FPGA Edition vlog 10.5b Compiler 2016.10 Oct  5 2016
# Start time: 21:32:40 on Sep 14,2020
# vlog -reportprogress 300 -vlog01compat "+define+SIMULATION" "+incdir+../../../src" "+incdir+../../../testbench" ../../../src/sm_cpu.v ../../../src/sm_hex_display.v ../../../src/sm_register.v ../../../src/sm_rom.v ../../../src/sm_top.v ../../../testbench/testbench.v 
# -- Compiling module sm_cpu
# -- Compiling module sm_control
# ** Warning: ../../../src/sm_cpu.v(153): (vlog-2600) [RDGN] - Redundant digits in numeric literal.
# ** Warning: ../../../src/sm_cpu.v(154): (vlog-2600) [RDGN] - Redundant digits in numeric literal.
# ** Warning: ../../../src/sm_cpu.v(155): (vlog-2600) [RDGN] - Redundant digits in numeric literal.
# ** Warning: ../../../src/sm_cpu.v(156): (vlog-2600) [RDGN] - Redundant digits in numeric literal.
# ** Warning: ../../../src/sm_cpu.v(157): (vlog-2600) [RDGN] - Redundant digits in numeric literal.
# ** Warning: ../../../src/sm_cpu.v(158): (vlog-2600) [RDGN] - Redundant digits in numeric literal.
# ** Warning: ../../../src/sm_cpu.v(159): (vlog-2600) [RDGN] - Redundant digits in numeric literal.
# ** Warning: ../../../src/sm_cpu.v(160): (vlog-2600) [RDGN] - Redundant digits in numeric literal.
# ** Warning: ../../../src/sm_cpu.v(161): (vlog-2600) [RDGN] - Redundant digits in numeric literal.
# ** Warning: ../../../src/sm_cpu.v(162): (vlog-2600) [RDGN] - Redundant digits in numeric literal.
# ** Warning: ../../../src/sm_cpu.v(163): (vlog-2600) [RDGN] - Redundant digits in numeric literal.
# ** Warning: ../../../src/sm_cpu.v(164): (vlog-2600) [RDGN] - Redundant digits in numeric literal.
# ** Warning: ../../../src/sm_cpu.v(165): (vlog-2600) [RDGN] - Redundant digits in numeric literal.
# -- Compiling module sm_alu
# -- Compiling module sm_register_file
# -- Compiling module sm_hex_display
# -- Compiling module sm_register
# -- Compiling module sm_register_we
# -- Compiling module sm_rom
# -- Compiling module sm_top
# -- Compiling module sm_metafilter
# -- Compiling module sm_clk_divider
# -- Compiling module sm_testbench
# 
# Top level modules:
# 	sm_hex_display
# 	sm_top
# 	sm_testbench
# End time: 21:32:40 on Sep 14,2020, Elapsed time: 0:00:00
# Errors: 0, Warnings: 13
# vsim work.sm_testbench 
# Start time: 21:32:42 on Sep 14,2020
# Loading work.sm_testbench
# Loading work.sm_cpu
# Loading work.sm_register
# Loading work.sm_rom
# Loading work.sm_register_file
# Loading work.sm_alu
# Loading work.sm_control
#     0  pc =  0  pcaddr= 00000000  instr = 00004025   v0 = 0 
#     1  pc =  0  pcaddr= 00000000  instr = 00004025   v0 = 0 
#     2  pc =  0  pcaddr= 00000000  instr = 00004025   v0 = 0 
#     3  pc =  0  pcaddr= 00000000  instr = 00004025   v0 = 0 
#     4  pc =  0  pcaddr= 00000000  instr = 00004025   v0 = 0 
#     5  pc =  1  pcaddr= 00000004  instr = 24090001   v0 = 0 
#     6  pc =  2  pcaddr= 00000008  instr = 01201025   v0 = 0 
#     7  pc =  3  pcaddr= 0000000c  instr = 01094021   v0 = 1 
#     8  pc =  4  pcaddr= 00000010  instr = 01001025   v0 = 1 
#     9  pc =  5  pcaddr= 00000014  instr = 01094821   v0 = 1 
#    10  pc =  6  pcaddr= 00000018  instr = 01201025   v0 = 1 
#    11  pc =  7  pcaddr= 0000001c  instr = 1000fffb   v0 = 2 
#    12  pc =  8  pcaddr= 00000020  instr = 00000000   v0 = 2 
#    13  pc =  9  pcaddr= 00000024  instr = xxxxxxxx   v0 = 2 
#    14  pc = 10  pcaddr= 00000028  instr = xxxxxxxx   v0 = 2 
#    15  pc = 11  pcaddr= 0000002c  instr = xxxxxxxx   v0 = 2 
#    16  pc = 12  pcaddr= 00000030  instr = xxxxxxxx   v0 = 2 
#    17  pc = 13  pcaddr= 00000034  instr = xxxxxxxx   v0 = 2 
#    18  pc = 14  pcaddr= 00000038  instr = xxxxxxxx   v0 = 2 
#    19  pc = 15  pcaddr= 0000003c  instr = xxxxxxxx   v0 = 2 
#    20  pc = 16  pcaddr= 00000040  instr = xxxxxxxx   v0 = 2 
#    21  pc = 17  pcaddr= 00000044  instr = xxxxxxxx   v0 = 2 
#    22  pc = 18  pcaddr= 00000048  instr = xxxxxxxx   v0 = 2 
#    23  pc = 19  pcaddr= 0000004c  instr = xxxxxxxx   v0 = 2 
#    24  pc = 20  pcaddr= 00000050  instr = xxxxxxxx   v0 = 2 
#    25  pc = 21  pcaddr= 00000054  instr = xxxxxxxx   v0 = 2 
#    26  pc = 22  pcaddr= 00000058  instr = xxxxxxxx   v0 = 2 
#    27  pc = 23  pcaddr= 0000005c  instr = xxxxxxxx   v0 = 2 
#    28  pc = 24  pcaddr= 00000060  instr = xxxxxxxx   v0 = 2 
#    29  pc = 25  pcaddr= 00000064  instr = xxxxxxxx   v0 = 2 
#    30  pc = 26  pcaddr= 00000068  instr = xxxxxxxx   v0 = 2 
#    31  pc = 27  pcaddr= 0000006c  instr = xxxxxxxx   v0 = 2 
#    32  pc = 28  pcaddr= 00000070  instr = xxxxxxxx   v0 = 2 
#    33  pc = 29  pcaddr= 00000074  instr = xxxxxxxx   v0 = 2 
#    34  pc = 30  pcaddr= 00000078  instr = xxxxxxxx   v0 = 2 
#    35  pc = 31  pcaddr= 0000007c  instr = xxxxxxxx   v0 = 2 
#    36  pc = 32  pcaddr= 00000080  instr = xxxxxxxx   v0 = 2 
#    37  pc = 33  pcaddr= 00000084  instr = xxxxxxxx   v0 = 2 
#    38  pc = 34  pcaddr= 00000088  instr = xxxxxxxx   v0 = 2 
#    39  pc = 35  pcaddr= 0000008c  instr = xxxxxxxx   v0 = 2 
#    40  pc = 36  pcaddr= 00000090  instr = xxxxxxxx   v0 = 2 
#    41  pc = 37  pcaddr= 00000094  instr = xxxxxxxx   v0 = 2 
#    42  pc = 38  pcaddr= 00000098  instr = xxxxxxxx   v0 = 2 
#    43  pc = 39  pcaddr= 0000009c  instr = xxxxxxxx   v0 = 2 
#    44  pc = 40  pcaddr= 000000a0  instr = xxxxxxxx   v0 = 2 
#    45  pc = 41  pcaddr= 000000a4  instr = xxxxxxxx   v0 = 2 
#    46  pc = 42  pcaddr= 000000a8  instr = xxxxxxxx   v0 = 2 
#    47  pc = 43  pcaddr= 000000ac  instr = xxxxxxxx   v0 = 2 
#    48  pc = 44  pcaddr= 000000b0  instr = xxxxxxxx   v0 = 2 
#    49  pc = 45  pcaddr= 000000b4  instr = xxxxxxxx   v0 = 2 
#    50  pc = 46  pcaddr= 000000b8  instr = xxxxxxxx   v0 = 2 
#    51  pc = 47  pcaddr= 000000bc  instr = xxxxxxxx   v0 = 2 
#    52  pc = 48  pcaddr= 000000c0  instr = xxxxxxxx   v0 = 2 
#    53  pc = 49  pcaddr= 000000c4  instr = xxxxxxxx   v0 = 2 
#    54  pc = 50  pcaddr= 000000c8  instr = xxxxxxxx   v0 = 2 
#    55  pc = 51  pcaddr= 000000cc  instr = xxxxxxxx   v0 = 2 
#    56  pc = 52  pcaddr= 000000d0  instr = xxxxxxxx   v0 = 2 
#    57  pc = 53  pcaddr= 000000d4  instr = xxxxxxxx   v0 = 2 
#    58  pc = 54  pcaddr= 000000d8  instr = xxxxxxxx   v0 = 2 
#    59  pc = 55  pcaddr= 000000dc  instr = xxxxxxxx   v0 = 2 
#    60  pc = 56  pcaddr= 000000e0  instr = xxxxxxxx   v0 = 2 
#    61  pc = 57  pcaddr= 000000e4  instr = xxxxxxxx   v0 = 2 
#    62  pc = 58  pcaddr= 000000e8  instr = xxxxxxxx   v0 = 2 
#    63  pc = 59  pcaddr= 000000ec  instr = xxxxxxxx   v0 = 2 
#    64  pc = 60  pcaddr= 000000f0  instr = xxxxxxxx   v0 = 2 
#    65  pc = 61  pcaddr= 000000f4  instr = xxxxxxxx   v0 = 2 
#    66  pc = 62  pcaddr= 000000f8  instr = xxxxxxxx   v0 = 2 
#    67  pc = 63  pcaddr= 000000fc  instr = xxxxxxxx   v0 = 2 
#    68  pc = 64  pcaddr= 00000100  instr = xxxxxxxx   v0 = 2 
#    69  pc = 65  pcaddr= 00000104  instr = xxxxxxxx   v0 = 2 
#    70  pc = 66  pcaddr= 00000108  instr = xxxxxxxx   v0 = 2 
#    71  pc = 67  pcaddr= 0000010c  instr = xxxxxxxx   v0 = 2 
#    72  pc = 68  pcaddr= 00000110  instr = xxxxxxxx   v0 = 2 
#    73  pc = 69  pcaddr= 00000114  instr = xxxxxxxx   v0 = 2 
#    74  pc = 70  pcaddr= 00000118  instr = xxxxxxxx   v0 = 2 
#    75  pc = 71  pcaddr= 0000011c  instr = xxxxxxxx   v0 = 2 
#    76  pc = 72  pcaddr= 00000120  instr = xxxxxxxx   v0 = 2 
#    77  pc = 73  pcaddr= 00000124  instr = xxxxxxxx   v0 = 2 
#    78  pc = 74  pcaddr= 00000128  instr = xxxxxxxx   v0 = 2 
#    79  pc = 75  pcaddr= 0000012c  instr = xxxxxxxx   v0 = 2 
#    80  pc = 76  pcaddr= 00000130  instr = xxxxxxxx   v0 = 2 
#    81  pc = 77  pcaddr= 00000134  instr = xxxxxxxx   v0 = 2 
#    82  pc = 78  pcaddr= 00000138  instr = xxxxxxxx   v0 = 2 
#    83  pc = 79  pcaddr= 0000013c  instr = xxxxxxxx   v0 = 2 
#    84  pc = 80  pcaddr= 00000140  instr = xxxxxxxx   v0 = 2 
#    85  pc = 81  pcaddr= 00000144  instr = xxxxxxxx   v0 = 2 
#    86  pc = 82  pcaddr= 00000148  instr = xxxxxxxx   v0 = 2 
#    87  pc = 83  pcaddr= 0000014c  instr = xxxxxxxx   v0 = 2 
#    88  pc = 84  pcaddr= 00000150  instr = xxxxxxxx   v0 = 2 
#    89  pc = 85  pcaddr= 00000154  instr = xxxxxxxx   v0 = 2 
#    90  pc = 86  pcaddr= 00000158  instr = xxxxxxxx   v0 = 2 
#    91  pc = 87  pcaddr= 0000015c  instr = xxxxxxxx   v0 = 2 
#    92  pc = 88  pcaddr= 00000160  instr = xxxxxxxx   v0 = 2 
#    93  pc = 89  pcaddr= 00000164  instr = xxxxxxxx   v0 = 2 
#    94  pc = 90  pcaddr= 00000168  instr = xxxxxxxx   v0 = 2 
#    95  pc = 91  pcaddr= 0000016c  instr = xxxxxxxx   v0 = 2 
#    96  pc = 92  pcaddr= 00000170  instr = xxxxxxxx   v0 = 2 
#    97  pc = 93  pcaddr= 00000174  instr = xxxxxxxx   v0 = 2 
#    98  pc = 94  pcaddr= 00000178  instr = xxxxxxxx   v0 = 2 
#    99  pc = 95  pcaddr= 0000017c  instr = xxxxxxxx   v0 = 2 
#   100  pc = 96  pcaddr= 00000180  instr = xxxxxxxx   v0 = 2 
#   101  pc = 97  pcaddr= 00000184  instr = xxxxxxxx   v0 = 2 
#   102  pc = 98  pcaddr= 00000188  instr = xxxxxxxx   v0 = 2 
#   103  pc = 99  pcaddr= 0000018c  instr = xxxxxxxx   v0 = 2 
#   104  pc = 100  pcaddr= 00000190  instr = xxxxxxxx   v0 = 2 
#   105  pc = 101  pcaddr= 00000194  instr = xxxxxxxx   v0 = 2 
#   106  pc = 102  pcaddr= 00000198  instr = xxxxxxxx   v0 = 2 
#   107  pc = 103  pcaddr= 0000019c  instr = xxxxxxxx   v0 = 2 
#   108  pc = 104  pcaddr= 000001a0  instr = xxxxxxxx   v0 = 2 
#   109  pc = 105  pcaddr= 000001a4  instr = xxxxxxxx   v0 = 2 
#   110  pc = 106  pcaddr= 000001a8  instr = xxxxxxxx   v0 = 2 
#   111  pc = 107  pcaddr= 000001ac  instr = xxxxxxxx   v0 = 2 
#   112  pc = 108  pcaddr= 000001b0  instr = xxxxxxxx   v0 = 2 
#   113  pc = 109  pcaddr= 000001b4  instr = xxxxxxxx   v0 = 2 
#   114  pc = 110  pcaddr= 000001b8  instr = xxxxxxxx   v0 = 2 
#   115  pc = 111  pcaddr= 000001bc  instr = xxxxxxxx   v0 = 2 
#   116  pc = 112  pcaddr= 000001c0  instr = xxxxxxxx   v0 = 2 
#   117  pc = 113  pcaddr= 000001c4  instr = xxxxxxxx   v0 = 2 
#   118  pc = 114  pcaddr= 000001c8  instr = xxxxxxxx   v0 = 2 
#   119  pc = 115  pcaddr= 000001cc  instr = xxxxxxxx   v0 = 2 
#   120  pc = 116  pcaddr= 000001d0  instr = xxxxxxxx   v0 = 2 
# Timeout
# ** Note: $stop    : ../../../testbench/testbench.v(61)
#    Time: 2410 ns  Iteration: 1  Instance: /sm_testbench
# Break in Module sm_testbench at ../../../testbench/testbench.v line 61
# 0 ps
# 2530500 ps
# End time: 21:35:27 on Sep 14,2020, Elapsed time: 0:02:45
# Errors: 0, Warnings: 0
