lab_01/program/02_sqrt/sim/transcript
# do ../modelsim_script.tcl
# -vlog01compat
# +define+SIMULATION
# +incdir+../../../src
# +incdir+../../../testbench
# ../../../src/*.v
# ../../../testbench/*.v
# Model Technology ModelSim - Intel FPGA Edition vlog 10.5b Compiler 2016.10 Oct  5 2016
# Start time: 01:03:01 on Sep 14,2020
# vlog -reportprogress 300 -vlog01compat "+define+SIMULATION" "+incdir+../../../src" "+incdir+../../../testbench" ../../../src/sm_cpu.v ../../../src/sm_hex_display.v ../../../src/sm_register.v ../../../src/sm_rom.v ../../../src/sm_top.v ../../../testbench/testbench.v 
# -- Compiling module sm_cpu
# -- Compiling module sm_control
# -- Compiling module sm_alu
# -- Compiling module sm_register_file
# -- Compiling module sm_hex_display
# -- Compiling module sm_register
# -- Compiling module sm_register_we
# -- Compiling module sm_rom
# -- Compiling module sm_top
# -- Compiling module sm_metafilter
# -- Compiling module sm_clk_divider
# -- Compiling module sm_testbench
# 
# Top level modules:
# 	sm_hex_display
# 	sm_top
# 	sm_testbench
# End time: 01:03:01 on Sep 14,2020, Elapsed time: 0:00:00
# Errors: 0, Warnings: 0
# vsim work.sm_testbench 
# Start time: 01:03:02 on Sep 14,2020
# Loading work.sm_testbench
# Loading work.sm_cpu
# Loading work.sm_register
# Loading work.sm_rom
# Loading work.sm_register_file
# Loading work.sm_alu
# Loading work.sm_control
#     0  pc =  0  pcaddr= 00000000  instr = 24040052   v0 = 0 
#     1  pc =  0  pcaddr= 00000000  instr = 24040052   v0 = 0 
#     2  pc =  0  pcaddr= 00000000  instr = 24040052   v0 = 0 
#     3  pc =  0  pcaddr= 00000000  instr = 24040052   v0 = 0 
#     4  pc =  0  pcaddr= 00000000  instr = 24040052   v0 = 0 
#     5  pc =  1  pcaddr= 00000004  instr = 3c084000   v0 = 0 
#     6  pc =  2  pcaddr= 00000008  instr = 00004825   v0 = 0 
#     7  pc =  3  pcaddr= 0000000c  instr = 01285025   v0 = 0 
#     8  pc =  4  pcaddr= 00000010  instr = 00094842   v0 = 0 
#     9  pc =  5  pcaddr= 00000014  instr = 008a582b   v0 = 0 
#    10  pc =  6  pcaddr= 00000018  instr = 15600003   v0 = 0 
#    11  pc = 10  pcaddr= 00000028  instr = 00084082   v0 = 0 
#    12  pc = 11  pcaddr= 0000002c  instr = 1500fff7   v0 = 0 
#    13  pc =  3  pcaddr= 0000000c  instr = 01285025   v0 = 0 
#    14  pc =  4  pcaddr= 00000010  instr = 00094842   v0 = 0 
#    15  pc =  5  pcaddr= 00000014  instr = 008a582b   v0 = 0 
#    16  pc =  6  pcaddr= 00000018  instr = 15600003   v0 = 0 
#    17  pc = 10  pcaddr= 00000028  instr = 00084082   v0 = 0 
#    18  pc = 11  pcaddr= 0000002c  instr = 1500fff7   v0 = 0 
#    19  pc =  3  pcaddr= 0000000c  instr = 01285025   v0 = 0 
#    20  pc =  4  pcaddr= 00000010  instr = 00094842   v0 = 0 
#    21  pc =  5  pcaddr= 00000014  instr = 008a582b   v0 = 0 
#    22  pc =  6  pcaddr= 00000018  instr = 15600003   v0 = 0 
#    23  pc = 10  pcaddr= 00000028  instr = 00084082   v0 = 0 
#    24  pc = 11  pcaddr= 0000002c  instr = 1500fff7   v0 = 0 
#    25  pc =  3  pcaddr= 0000000c  instr = 01285025   v0 = 0 
#    26  pc =  4  pcaddr= 00000010  instr = 00094842   v0 = 0 
#    27  pc =  5  pcaddr= 00000014  instr = 008a582b   v0 = 0 
#    28  pc =  6  pcaddr= 00000018  instr = 15600003   v0 = 0 
#    29  pc = 10  pcaddr= 00000028  instr = 00084082   v0 = 0 
#    30  pc = 11  pcaddr= 0000002c  instr = 1500fff7   v0 = 0 
#    31  pc =  3  pcaddr= 0000000c  instr = 01285025   v0 = 0 
#    32  pc =  4  pcaddr= 00000010  instr = 00094842   v0 = 0 
#    33  pc =  5  pcaddr= 00000014  instr = 008a582b   v0 = 0 
#    34  pc =  6  pcaddr= 00000018  instr = 15600003   v0 = 0 
#    35  pc = 10  pcaddr= 00000028  instr = 00084082   v0 = 0 
#    36  pc = 11  pcaddr= 0000002c  instr = 1500fff7   v0 = 0 
#    37  pc =  3  pcaddr= 0000000c  instr = 01285025   v0 = 0 
#    38  pc =  4  pcaddr= 00000010  instr = 00094842   v0 = 0 
#    39  pc =  5  pcaddr= 00000014  instr = 008a582b   v0 = 0 
#    40  pc =  6  pcaddr= 00000018  instr = 15600003   v0 = 0 
#    41  pc = 10  pcaddr= 00000028  instr = 00084082   v0 = 0 
#    42  pc = 11  pcaddr= 0000002c  instr = 1500fff7   v0 = 0 
#    43  pc =  3  pcaddr= 0000000c  instr = 01285025   v0 = 0 
#    44  pc =  4  pcaddr= 00000010  instr = 00094842   v0 = 0 
#    45  pc =  5  pcaddr= 00000014  instr = 008a582b   v0 = 0 
#    46  pc =  6  pcaddr= 00000018  instr = 15600003   v0 = 0 
#    47  pc = 10  pcaddr= 00000028  instr = 00084082   v0 = 0 
#    48  pc = 11  pcaddr= 0000002c  instr = 1500fff7   v0 = 0 
#    49  pc =  3  pcaddr= 0000000c  instr = 01285025   v0 = 0 
#    50  pc =  4  pcaddr= 00000010  instr = 00094842   v0 = 0 
#    51  pc =  5  pcaddr= 00000014  instr = 008a582b   v0 = 0 
#    52  pc =  6  pcaddr= 00000018  instr = 15600003   v0 = 0 
#    53  pc = 10  pcaddr= 00000028  instr = 00084082   v0 = 0 
#    54  pc = 11  pcaddr= 0000002c  instr = 1500fff7   v0 = 0 
#    55  pc =  3  pcaddr= 0000000c  instr = 01285025   v0 = 0 
#    56  pc =  4  pcaddr= 00000010  instr = 00094842   v0 = 0 
#    57  pc =  5  pcaddr= 00000014  instr = 008a582b   v0 = 0 
#    58  pc =  6  pcaddr= 00000018  instr = 15600003   v0 = 0 
#    59  pc = 10  pcaddr= 00000028  instr = 00084082   v0 = 0 
#    60  pc = 11  pcaddr= 0000002c  instr = 1500fff7   v0 = 0 
#    61  pc =  3  pcaddr= 0000000c  instr = 01285025   v0 = 0 
#    62  pc =  4  pcaddr= 00000010  instr = 00094842   v0 = 0 
#    63  pc =  5  pcaddr= 00000014  instr = 008a582b   v0 = 0 
#    64  pc =  6  pcaddr= 00000018  instr = 15600003   v0 = 0 
#    65  pc = 10  pcaddr= 00000028  instr = 00084082   v0 = 0 
#    66  pc = 11  pcaddr= 0000002c  instr = 1500fff7   v0 = 0 
#    67  pc =  3  pcaddr= 0000000c  instr = 01285025   v0 = 0 
#    68  pc =  4  pcaddr= 00000010  instr = 00094842   v0 = 0 
#    69  pc =  5  pcaddr= 00000014  instr = 008a582b   v0 = 0 
#    70  pc =  6  pcaddr= 00000018  instr = 15600003   v0 = 0 
#    71  pc = 10  pcaddr= 00000028  instr = 00084082   v0 = 0 
#    72  pc = 11  pcaddr= 0000002c  instr = 1500fff7   v0 = 0 
#    73  pc =  3  pcaddr= 0000000c  instr = 01285025   v0 = 0 
#    74  pc =  4  pcaddr= 00000010  instr = 00094842   v0 = 0 
#    75  pc =  5  pcaddr= 00000014  instr = 008a582b   v0 = 0 
#    76  pc =  6  pcaddr= 00000018  instr = 15600003   v0 = 0 
#    77  pc = 10  pcaddr= 00000028  instr = 00084082   v0 = 0 
#    78  pc = 11  pcaddr= 0000002c  instr = 1500fff7   v0 = 0 
#    79  pc =  3  pcaddr= 0000000c  instr = 01285025   v0 = 0 
#    80  pc =  4  pcaddr= 00000010  instr = 00094842   v0 = 0 
#    81  pc =  5  pcaddr= 00000014  instr = 008a582b   v0 = 0 
#    82  pc =  6  pcaddr= 00000018  instr = 15600003   v0 = 0 
#    83  pc =  7  pcaddr= 0000001c  instr = 00000000   v0 = 0 
#    84  pc =  8  pcaddr= 00000020  instr = 008a2023   v0 = 0 
#    85  pc =  9  pcaddr= 00000024  instr = 01284825   v0 = 0 
#    86  pc = 10  pcaddr= 00000028  instr = 00084082   v0 = 0 
#    87  pc = 11  pcaddr= 0000002c  instr = 1500fff7   v0 = 0 
#    88  pc =  3  pcaddr= 0000000c  instr = 01285025   v0 = 0 
#    89  pc =  4  pcaddr= 00000010  instr = 00094842   v0 = 0 
#    90  pc =  5  pcaddr= 00000014  instr = 008a582b   v0 = 0 
#    91  pc =  6  pcaddr= 00000018  instr = 15600003   v0 = 0 
#    92  pc = 10  pcaddr= 00000028  instr = 00084082   v0 = 0 
#    93  pc = 11  pcaddr= 0000002c  instr = 1500fff7   v0 = 0 
#    94  pc =  3  pcaddr= 0000000c  instr = 01285025   v0 = 0 
#    95  pc =  4  pcaddr= 00000010  instr = 00094842   v0 = 0 
#    96  pc =  5  pcaddr= 00000014  instr = 008a582b   v0 = 0 
#    97  pc =  6  pcaddr= 00000018  instr = 15600003   v0 = 0 
#    98  pc = 10  pcaddr= 00000028  instr = 00084082   v0 = 0 
#    99  pc = 11  pcaddr= 0000002c  instr = 1500fff7   v0 = 0 
#   100  pc =  3  pcaddr= 0000000c  instr = 01285025   v0 = 0 
#   101  pc =  4  pcaddr= 00000010  instr = 00094842   v0 = 0 
#   102  pc =  5  pcaddr= 00000014  instr = 008a582b   v0 = 0 
#   103  pc =  6  pcaddr= 00000018  instr = 15600003   v0 = 0 
#   104  pc =  7  pcaddr= 0000001c  instr = 00000000   v0 = 0 
#   105  pc =  8  pcaddr= 00000020  instr = 008a2023   v0 = 0 
#   106  pc =  9  pcaddr= 00000024  instr = 01284825   v0 = 0 
#   107  pc = 10  pcaddr= 00000028  instr = 00084082   v0 = 0 
#   108  pc = 11  pcaddr= 0000002c  instr = 1500fff7   v0 = 0 
#   109  pc = 12  pcaddr= 00000030  instr = 00000000   v0 = 0 
#   110  pc = 13  pcaddr= 00000034  instr = 01201025   v0 = 0 
#   111  pc = 14  pcaddr= 00000038  instr = 1000ffff   v0 = 9 
#   112  pc = 14  pcaddr= 00000038  instr = 1000ffff   v0 = 9 
#   113  pc = 14  pcaddr= 00000038  instr = 1000ffff   v0 = 9 
#   114  pc = 14  pcaddr= 00000038  instr = 1000ffff   v0 = 9 
#   115  pc = 14  pcaddr= 00000038  instr = 1000ffff   v0 = 9 
#   116  pc = 14  pcaddr= 00000038  instr = 1000ffff   v0 = 9 
#   117  pc = 14  pcaddr= 00000038  instr = 1000ffff   v0 = 9 
#   118  pc = 14  pcaddr= 00000038  instr = 1000ffff   v0 = 9 
#   119  pc = 14  pcaddr= 00000038  instr = 1000ffff   v0 = 9 
#   120  pc = 14  pcaddr= 00000038  instr = 1000ffff   v0 = 9 
# Timeout
# ** Note: $stop    : ../../../testbench/testbench.v(61)
#    Time: 2410 ns  Iteration: 1  Instance: /sm_testbench
# Break in Module sm_testbench at ../../../testbench/testbench.v line 61
# 0 ps
# 2530500 ps
# End time: 01:07:00 on Sep 14,2020, Elapsed time: 0:03:58
# Errors: 0, Warnings: 0
